{
  "docs": [
    {
      "status": null,
      "rating": {
        "kp": 9.109,
        "imdb": 9.3,
        "filmCritics": 8.4,
        "russianFilmCritics": 0,
        "await": null
      },
      "votes": {
        "kp": 1002576,
        "imdb": 2847215,
        "filmCritics": 79,
        "russianFilmCritics": 1,
        "await": 2
      },
      "backdrop": {
        "url": "https://imagetmdb.com/t/p/original/kXfqcdQKsToO0OUXHcrrNCHDBzO.jpg",
        "previewUrl": "https://imagetmdb.com/t/p/w500/kXfqcdQKsToO0OUXHcrrNCHDBzO.jpg"
      },
      "movieLength": 142,
      "id": 326,
      "type": "movie",
      "name": "Побег из Шоушенка",
      "description": "Бухгалтер Энди Дюфрейн обвинён в убийстве собственной жены и её любовника. Оказавшись в тюрьме под названием Шоушенк, он сталкивается с жестокостью и беззаконием, царящими по обе стороны решётки. Каждый, кто попадает в эти стены, становится их рабом до конца жизни. Но Энди, обладающий живым умом и доброй душой, находит подход как к заключённым, так и к охранникам, добиваясь их особого к себе расположения.",
      "year": 1994,
      "poster": {
        "url": "https://avatars.mds.yandex.net/get-kinopoisk-image/1599028/0b76b2a2-d1c7-4f04-a284-80ff7bb709a4/orig",
        "previewUrl": "https://avatars.mds.yandex.net/get-kinopoisk-image/1599028/0b76b2a2-d1c7-4f04-a284-80ff7bb709a4/x1000"
      },
      "genres": [
        {
          "name": "драма"
        }
      ],
      "countries": [
        {
          "name": "США"
        }
      ],
      "typeNumber": 1,
      "alternativeName": "The Shawshank Redemption",
      "enName": null,
      "names": [
        {
          "name": "Побег из Шоушенка"
        },
        {
          "name": "The Shawshank Redemption"
        },
        {
          "name": "Xiao shen ke de jiu shu",
          "language": "CN",
          "type": "Mandarin title"
        },
        {
          "name": "Gaqceva shoushenkidan",
          "language": "GE",
          "type": null
        },
        {
          "name": "Rita Hayworth - nyckel till flykten",
          "language": "SE",
          "type": null
        },
        {
          "name": "Şouşenkdən qaçış",
          "language": "AZ",
          "type": null
        },
        {
          "name": "Shawshank Redemption – Avain pakoon",
          "language": "FI",
          "type": "DVD"
        },
        {
          "name": "Искупление Шоушенком",
          "language": "RU",
          "type": null
        },
        {
          "name": "Shoushenkden Qacish",
          "language": "AZ",
          "type": null
        },
        {
          "name": "Rastgari Dar Shawshank",
          "language": "IR",
          "type": null
        },
        {
          "name": "Homot Shel Tikva",
          "language": "IL",
          "type": null
        },
        {
          "name": "Shôshanku no sora ni",
          "language": "JP",
          "type": null
        },
        {
          "name": "Бекство из Шошенка",
          "language": "RS",
          "type": null
        },
        {
          "name": "쇼생크 탈출",
          "language": "KR",
          "type": null
        },
        {
          "name": "Les Évadés",
          "language": "FR",
          "type": null
        },
        {
          "name": "刺激1995",
          "language": "TW",
          "type": null
        },
        {
          "name": "Die Verurteilten",
          "language": "DE",
          "type": null
        },
        {
          "name": "Skazani na Shawshank",
          "language": "PL",
          "type": null
        },
        {
          "name": "月黑高飛",
          "language": "TW",
          "type": null
        },
        {
          "name": "ショーシャンクの空に：1994",
          "language": "JP",
          "type": null
        },
        {
          "name": "Cadena perpetua",
          "language": "ES",
          "type": "Castilian Spanish"
        }
      ],
      "ratingMpaa": "r",
      "shortDescription": "Несправедливо осужденный банкир готовит побег из тюрьмы. Тим Роббинс в выдающейся экранизации Стивена Кинга",
      "ticketsOnSale": false,
      "ageRating": 16,
      "logo": {
        "url": "https://avatars.mds.yandex.net/get-ott/1648503/2a000001705c8bf514c033f1019473a4caae/orig"
      },
      "top10": null,
      "top250": 3,
      "isSeries": false,
      "seriesLength": null,
      "totalSeriesLength": null
    },
    {
      "status": null,
      "rating": {
        "kp": 9.075,
        "imdb": 8.6,
        "filmCritics": 6.8,
        "russianFilmCritics": 0,
        "await": null
      },
      "votes": {
        "kp": 955783,
        "imdb": 1383297,
        "filmCritics": 136,
        "russianFilmCritics": 1,
        "await": 0
      },
      "backdrop": {
        "url": "https://imagetmdb.com/t/p/original/l6hQWH9eDksNJNiXWYRkWqikOdu.jpg",
        "previewUrl": "https://imagetmdb.com/t/p/w500/l6hQWH9eDksNJNiXWYRkWqikOdu.jpg"
      },
      "movieLength": 189,
      "id": 435,
      "type": "movie",
      "name": "Зеленая миля",
      "description": "Пол Эджкомб — начальник блока смертников в тюрьме «Холодная гора», каждый из узников которого однажды проходит «зеленую милю» по пути к месту казни. Пол повидал много заключённых и надзирателей за время работы. Однако гигант Джон Коффи, обвинённый в страшном преступлении, стал одним из самых необычных обитателей блока.",
      "year": 1999,
      "poster": {
        "url": "https://avatars.mds.yandex.net/get-kinopoisk-image/1599028/4057c4b8-8208-4a04-b169-26b0661453e3/orig",
        "previewUrl": "https://avatars.mds.yandex.net/get-kinopoisk-image/1599028/4057c4b8-8208-4a04-b169-26b0661453e3/x1000"
      },
      "genres": [
        {
          "name": "драма"
        },
        {
          "name": "фэнтези"
        },
        {
          "name": "криминал"
        }
      ],
      "countries": [
        {
          "name": "США"
        }
      ],
      "typeNumber": 1,
      "alternativeName": "The Green Mile",
      "enName": "Stephen King's The Green Mile",
      "names": [
        {
          "name": "Зеленая миля"
        },
        {
          "name": "The Green Mile"
        },
        {
          "name": "Roheline miil",
          "language": "EE",
          "type": null
        },
        {
          "name": "Stephen King's The Green Mile",
          "language": "US",
          "type": "complete title"
        },
        {
          "name": "Gurîn Mairu",
          "language": "JP",
          "type": null
        },
        {
          "name": "To prasino mili",
          "language": "GR",
          "type": null
        },
        {
          "name": "un milagro inesperado: la milla verde",
          "language": "MX",
          "type": null
        },
        {
          "name": "綠里奇蹟",
          "language": "HK",
          "type": null
        },
        {
          "name": "Зелена миља",
          "language": "RS",
          "type": null
        },
        {
          "name": "Yeşil Yol",
          "language": "TR",
          "type": null
        },
        {
          "name": "Zielona mila",
          "language": "PL",
          "type": null
        },
        {
          "name": "グリーンマイル：1999",
          "language": "JP",
          "type": null
        },
        {
          "name": "La milla verde",
          "language": "ES",
          "type": "Castilian Spanish"
        },
        {
          "name": "Yaşıl Yol",
          "language": "AZ",
          "type": null
        }
      ],
      "ratingMpaa": "r",
      "shortDescription": "В тюрьме для смертников появляется заключенный с божественным даром. Мистическая драма по роману Стивена Кинга",
      "ticketsOnSale": false,
      "ageRating": 16,
      "logo": {
        "url": "https://avatars.mds.yandex.net/get-ott/239697/2a0000016f12f1eb8870b609ee94313774b2/orig"
      },
      "top10": null,
      "top250": 1,
      "isSeries": false,
      "seriesLength": null,
      "totalSeriesLength": null
    },
    {
      "status": null,
      "rating": {
        "kp": 9.196,
        "imdb": 8.4,
        "filmCritics": 0,
        "russianFilmCritics": 0,
        "await": null
      },
      "votes": {
        "kp": 655969,
        "imdb": 4114,
        "filmCritics": 0,
        "russianFilmCritics": 0,
        "await": 0
      },
      "backdrop": {
        "url": "https://imagetmdb.com/t/p/original/bkchguu5t1CzmEZztpFE0qEjNA6.jpg",
        "previewUrl": "https://imagetmdb.com/t/p/w500/bkchguu5t1CzmEZztpFE0qEjNA6.jpg"
      },
      "movieLength": 10,
      "id": 45319,
      "type": "cartoon",
      "name": "Жил-был пёс",
      "description": "Жил-был пёс. Верно служил, но выгнали его по старости. И решил он повеситься, да повстречал в лесу такого же старого волка...",
      "year": 1982,
      "poster": {
        "url": "https://avatars.mds.yandex.net/get-kinopoisk-image/4303601/03c5124a-e59a-474b-8dc9-6227db156566/orig",
        "previewUrl": "https://avatars.mds.yandex.net/get-kinopoisk-image/4303601/03c5124a-e59a-474b-8dc9-6227db156566/x1000"
      },
      "genres": [
        {
          "name": "мультфильм"
        },
        {
          "name": "комедия"
        },
        {
          "name": "короткометражка"
        },
        {
          "name": "семейный"
        }
      ],
      "countries": [
        {
          "name": "СССР"
        }
      ],
      "typeNumber": 3,
      "alternativeName": null,
      "enName": null,
      "names": [
        {
          "name": "Жил-был пёс"
        },
        {
          "name": "Zhil-Byl Pyos",
          "language": "RU",
          "type": "Translit"
        },
        {
          "name": "Once Upon a Dog",
          "language": "US",
          "type": null
        },
        {
          "name": "Жил был пёс",
          "language": "RU",
          "type": null
        },
        {
          "name": "Жил был пес",
          "language": "RU",
          "type": null
        },
        {
          "name": "There Once Was a Dog",
          "language": "GB",
          "type": null
        }
      ],
      "ratingMpaa": null,
      "shortDescription": "Волк помогает старому псу вернуться к людям. Душевный мультфильм, подаривший народу крылатую фразу «Щас спою»",
      "ticketsOnSale": false,
      "ageRating": 0,
      "logo": {
        "url": "https://avatars.mds.yandex.net/get-ott/212840/2a000001771afbbd3a3348a0dca0adbf9945/orig"
      },
      "top10": null,
      "top250": null,
      "isSeries": false,
      "seriesLength": null,
      "totalSeriesLength": null
    },
    {
      "status": "completed",
      "rating": {
        "kp": 9.233,
        "imdb": 8.9,
        "filmCritics": 0,
        "russianFilmCritics": 0,
        "await": null
      },
      "votes": {
        "kp": 510046,
        "imdb": 1067842,
        "filmCritics": 0,
        "russianFilmCritics": 0,
        "await": 5
      },
      "backdrop": {
        "url": "https://imagetmdb.com/t/p/original/qjUqBVLUPX1Pc4cyYljZfAJHf8N.jpg",
        "previewUrl": "https://imagetmdb.com/t/p/w500/qjUqBVLUPX1Pc4cyYljZfAJHf8N.jpg"
      },
      "id": 77044,
      "type": "tv-series",
      "name": "Друзья",
      "description": "Шестеро друзей – Рейчел, Моника, Фиби, Джоуи, Чендлер и Росс – живут по соседству, вместе убивают время, делятся секретами и иногда очень сильно влюбляются.",
      "year": 1994,
      "poster": {
        "url": "https://avatars.mds.yandex.net/get-kinopoisk-image/1900788/35c6cb89-75e3-4efa-8d00-5bbf7175c066/orig",
        "previewUrl": "https://avatars.mds.yandex.net/get-kinopoisk-image/1900788/35c6cb89-75e3-4efa-8d00-5bbf7175c066/x1000"
      },
      "genres": [
        {
          "name": "комедия"
        },
        {
          "name": "мелодрама"
        }
      ],
      "countries": [
        {
          "name": "США"
        }
      ],
      "typeNumber": 2,
      "alternativeName": "Friends",
      "enName": "Friends",
      "names": [
        {
          "name": "Друзья"
        },
        {
          "name": "Friends"
        },
        {
          "name": "Venner",
          "language": "DK",
          "type": null
        },
        {
          "name": "Vänner",
          "language": "SE",
          "type": null
        },
        {
          "name": "老友記",
          "language": "TW",
          "type": null
        },
        {
          "name": "Dost",
          "language": "IN",
          "type": null
        }
      ],
      "movieLength": null,
      "shortDescription": "Шестеро друзей, две квартиры и много юмора. Ситком, который вошел в культурный код не одного поколения",
      "ratingMpaa": null,
      "ticketsOnSale": false,
      "ageRating": 16,
      "logo": {
        "url": "https://avatars.mds.yandex.net/get-ott/224348/2a0000018030bc50f4eaebeb776ebeb26b87/orig"
      },
      "releaseYears": [
        {
          "start": 1994,
          "end": 2004
        }
      ],
      "top10": null,
      "top250": 4,
      "isSeries": true,
      "seriesLength": 22,
      "totalSeriesLength": null
    },
    {
      "status": null,
      "rating": {
        "kp": 9.019,
        "imdb": 7.7,
        "filmCritics": 0,
        "russianFilmCritics": 0,
        "await": null
      },
      "votes": {
        "kp": 101717,
        "imdb": 66,
        "filmCritics": 0,
        "russianFilmCritics": 0,
        "await": 0
      },
      "backdrop": {
        "url": "https://imagetmdb.com/t/p/original/hEbabqFa4cMisXJN07232mw1YWf.jpg",
        "previewUrl": "https://imagetmdb.com/t/p/w500/hEbabqFa4cMisXJN07232mw1YWf.jpg"
      },
      "id": 988056,
      "type": "animated-series",
      "name": "Малышарики",
      "description": "Анимационный развлекательно-образовательный проект для малышей от 0 до 3 лет, охватывающий̆ все сферы жизнедеятельности ребенка с самого рождения: здоровье и физическое развитие, познание, социализацию, труд и творчество. Благодаря использованию современных технологий и положенных в основу разработок детских психологов и педагогов, проект органично сочетает в себе интерактивность и безопасность.",
      "year": 2015,
      "poster": {
        "url": "https://avatars.mds.yandex.net/get-kinopoisk-image/4303601/2e5c7811-cd87-43e1-b6cf-37877aa48dfa/orig",
        "previewUrl": "https://avatars.mds.yandex.net/get-kinopoisk-image/4303601/2e5c7811-cd87-43e1-b6cf-37877aa48dfa/x1000"
      },
      "genres": [
        {
          "name": "мультфильм"
        },
        {
          "name": "детский"
        },
        {
          "name": "комедия"
        }
      ],
      "countries": [
        {
          "name": "Россия"
        }
      ],
      "typeNumber": 5,
      "alternativeName": "Малышарики",
      "enName": "Malyshariki",
      "names": [
        {
          "name": "Малышарики"
        },
        {
          "name": "Malyshariki",
          "language": "RU",
          "type": "Сериал"
        },
        {
          "name": "Малышарики Malyshariki BabyRiki",
          "language": "RU",
          "type": "Сериал"
        },
        {
          "name": "Malyshariki",
          "language": "US",
          "type": "TV Series"
        },
        {
          "name": "BabyRiki",
          "language": "US",
          "type": "TV Series"
        },
        {
          "name": "瑞奇宝宝",
          "language": "CN",
          "type": null
        }
      ],
      "movieLength": null,
      "ratingMpaa": null,
      "shortDescription": "Как начать общение, что такое сочувствие и откуда берется снег? Вместе с Малышариками взрослеют и их вопросы",
      "ticketsOnSale": false,
      "ageRating": 0,
      "logo": {
        "url": "https://avatars.mds.yandex.net/get-ott/224348/2a000001802ccd11c84dd8f8f2f2ddc58c92/orig"
      },
      "releaseYears": [
        {
          "start": 2015,
          "end": null
        }
      ],
      "top10": null,
      "top250": null,
      "isSeries": true,
      "seriesLength": 5,
      "totalSeriesLength": null
    },
    {
      "status": null,
      "rating": {
        "kp": 8.277,
        "imdb": 7.7,
        "filmCritics": 5.9,
        "russianFilmCritics": 0,
        "await": null
      },
      "votes": {
        "kp": 1140331,
        "imdb": 642886,
        "filmCritics": 116,
        "russianFilmCritics": 0,
        "await": 0
      },
      "backdrop": {
        "url": "https://imagetmdb.com/t/p/original/6uLhSLXzB1ooJ3522ydrBZ2Hh0W.jpg",
        "previewUrl": "https://imagetmdb.com/t/p/w500/6uLhSLXzB1ooJ3522ydrBZ2Hh0W.jpg"
      },
      "movieLength": 103,
      "id": 8124,
      "type": "movie",
      "name": "Один дома",
      "description": "Американское семейство отправляется из Чикаго в Европу, но в спешке сборов бестолковые родители забывают дома... одного из своих детей. Юное создание, однако, не теряется и демонстрирует чудеса изобретательности. И когда в дом залезают грабители, им приходится не раз пожалеть о встрече с милым крошкой.",
      "year": 1990,
      "poster": {
        "url": "https://avatars.mds.yandex.net/get-kinopoisk-image/6201401/022a58e3-5b9b-411b-bfb3-09fedb700401/orig",
        "previewUrl": "https://avatars.mds.yandex.net/get-kinopoisk-image/6201401/022a58e3-5b9b-411b-bfb3-09fedb700401/x1000"
      },
      "genres": [
        {
          "name": "комедия"
        },
        {
          "name": "семейный"
        }
      ],
      "countries": [
        {
          "name": "США"
        }
      ],
      "typeNumber": 1,
      "alternativeName": "Home Alone",
      "enName": null,
      "names": [
        {
          "name": "Один дома"
        },
        {
          "name": "Home Alone"
        },
        {
          "name": "Один вдома",
          "language": "UA",
          "type": null
        },
        {
          "name": "Один удома",
          "language": "UA",
          "type": null
        },
        {
          "name": "Hjemme alene",
          "language": "NO",
          "type": null
        },
        {
          "name": "अकेला घर",
          "language": "IN",
          "type": "Hindi"
        },
        {
          "name": "Homu aron",
          "language": "JP",
          "type": "romaji"
        },
        {
          "name": "Singur acasa",
          "language": "RO",
          "type": null
        },
        {
          "name": "Maman, j'ai raté l'avion",
          "language": "CA",
          "type": null
        },
        {
          "name": "హోమ్ అలోన్",
          "language": "IN",
          "type": "Telugu"
        },
        {
          "name": "Üksinda kodus",
          "language": "EE",
          "type": null
        },
        {
          "name": "Home Alone 1",
          "language": "US",
          "type": null
        },
        {
          "name": "ホームアローン",
          "language": "JP",
          "type": null
        },
        {
          "name": "Mi probre angelito",
          "language": "MX",
          "type": null
        },
        {
          "name": "Viens pats mājās",
          "language": "LV",
          "type": null
        },
        {
          "name": "Kevin - Allein zu Haus",
          "language": "DE",
          "type": null
        },
        {
          "name": "שחכו אותי בבית",
          "language": "IL",
          "type": null
        },
        {
          "name": "לבד בבית",
          "language": "IL",
          "type": null
        },
        {
          "name": "Ensam hemma",
          "language": "SE",
          "type": null
        },
        {
          "name": "Maman, (1) j'ai raté l'avion !",
          "language": "FR",
          "type": null
        },
        {
          "name": "나홀로 집에",
          "language": "KR",
          "type": null
        },
        {
          "name": "Ở Nhà Một Mình",
          "language": "VN",
          "type": null
        },
        {
          "name": "Үйде жалғыз қалғанда",
          "language": "KZ",
          "type": null
        },
        {
          "name": "Sam doma",
          "language": "SI",
          "type": null
        },
        {
          "name": "לבד בבית 1",
          "language": "IL",
          "type": null
        },
        {
          "name": "Mi pobre angelito",
          "language": "MX",
          "type": null
        },
        {
          "name": "Solo en casa",
          "language": "ES",
          "type": "Castilian Spanish"
        },
        {
          "name": "Evdə Tək",
          "language": "AZ",
          "type": null
        },
        {
          "name": "小鬼當家",
          "language": "TW",
          "type": null
        }
      ],
      "ratingMpaa": "pg",
      "shortDescription": "Мальчик-озорник задает жару грабителям. Лучшая комедия для создания праздничного настроения у всей семьи",
      "ticketsOnSale": false,
      "ageRating": 0,
      "logo": {
        "url": "https://avatars.mds.yandex.net/get-ott/212840/2a00000172550ce8255397b4e3d6f9938ddf/orig"
      },
      "top10": null,
      "top250": 105,
      "isSeries": false,
      "seriesLength": null,
      "totalSeriesLength": null
    },
    {
      "id": 1072974,
      "type": "animated-series",
      "name": "Герои Энвелла",
      "rating": {
        "kp": 9.303,
        "imdb": 0,
        "filmCritics": 0,
        "russianFilmCritics": 0,
        "await": null
      },
      "description": "История о четырех геймерах, которые нашли необычный ноутбук, оказавшийся порталом в мир игры «Герои Энвелла». Здесь все реально: и сам город, и его жители, и опасности, поджидающие на каждом шагу. В первом сезоне герои проходят игру и в финале сражаются с ее главным злодеем — Моргартом, который хочет вырваться в реальный мир. В продолжении сериала повзрослевшие ребята пытаются справиться с личными проблемами, но неожиданно из игры приходит сигнал о помощи. Арт, Кира, Вик и Фил возвращаются в мир Энвелла и встречают старых знакомых.",
      "votes": {
        "kp": 50285,
        "imdb": 0,
        "filmCritics": 0,
        "russianFilmCritics": 0,
        "await": 14
      },
      "year": 2017,
      "poster": {
        "url": "https://avatars.mds.yandex.net/get-kinopoisk-image/6201401/98dea5ec-a546-4c3f-82fd-7fc7420e04f8/orig",
        "previewUrl": "https://avatars.mds.yandex.net/get-kinopoisk-image/6201401/98dea5ec-a546-4c3f-82fd-7fc7420e04f8/x1000"
      },
      "genres": [
        {
          "name": "мультфильм"
        },
        {
          "name": "фантастика"
        },
        {
          "name": "детский"
        }
      ],
      "countries": [
        {
          "name": "Россия"
        }
      ],
      "typeNumber": 5,
      "alternativeName": null,
      "enName": null,
      "names": [
        {
          "name": "Герои Энвелла"
        }
      ],
      "ageRating": 6,
      "movieLength": null,
      "ratingMpaa": null,
      "shortDescription": "Школьники-геймеры вступают в схватку с виртуальным злом. Хитовый мультсериал от российской студии «Паровоз»",
      "ticketsOnSale": false,
      "backdrop": {
        "url": "https://imagetmdb.com/t/p/original/wisDivYrE6nnzEuVfXDCJbonjLP.jpg",
        "previewUrl": "https://imagetmdb.com/t/p/w500/wisDivYrE6nnzEuVfXDCJbonjLP.jpg"
      },
      "logo": {
        "url": "https://avatars.mds.yandex.net/get-ott/1531675/2a000001795cfd5fb90f118383136f2af4ac/orig"
      },
      "releaseYears": [
        {
          "start": 2017,
          "end": 2021
        }
      ],
      "top10": null,
      "top250": null,
      "status": "completed",
      "isSeries": true,
      "seriesLength": 11,
      "totalSeriesLength": null
    },
    {
      "id": 972889,
      "name": "BadComedian",
      "alternativeName": "BadComedian",
      "names": [
        {
          "name": "BadComedian",
          "language": "RU",
          "type": "Russian title on kinopoisk"
        }
      ],
      "type": "tv-series",
      "typeNumber": 2,
      "year": 2011,
      "description": "Человек, который смотрит слишком много плохих фильмов. Обзоры кино. Юмор. Ирония. Ненависть. Плохие российские / зарубежные фильмы.  Критика фильмов, игр, жизни, лично тебя.\n\nНовости кино, трейлеры, обзоры.\n\nПРИЯТНОГО ПРОСМОТРА",
      "shortDescription": null,
      "status": null,
      "rating": {
        "kp": 9.136,
        "imdb": 7.5,
        "filmCritics": 0,
        "russianFilmCritics": 0,
        "await": null
      },
      "votes": {
        "kp": 35630,
        "imdb": 890,
        "filmCritics": 0,
        "russianFilmCritics": 0,
        "await": 0
      },
      "movieLength": null,
      "totalSeriesLength": null,
      "seriesLength": null,
      "ratingMpaa": null,
      "ageRating": 18,
      "poster": {
        "url": "https://avatars.mds.yandex.net/get-kinopoisk-image/1773646/61c24fca-8e88-4820-9d1f-0c274ca94810/orig",
        "previewUrl": "https://avatars.mds.yandex.net/get-kinopoisk-image/1773646/61c24fca-8e88-4820-9d1f-0c274ca94810/x1000"
      },
      "backdrop": {
        "url": null,
        "previewUrl": null
      },
      "genres": [
        {
          "name": "реальное ТВ"
        },
        {
          "name": "комедия"
        }
      ],
      "countries": [
        {
          "name": "Россия"
        }
      ],
      "ticketsOnSale": false,
      "releaseYears": [
        {
          "start": 2011,
          "end": null
        }
      ],
      "top10": null,
      "top250": null,
      "isSeries": true,
      "logo": {
        "url": null,
        "previewUrl": null
      },
      "enName": null
    },
    {
      "id": 5231945,
      "name": "Кот Басик",
      "alternativeName": null,
      "names": [
        {
          "name": "Кот Басик"
        }
      ],
      "type": "animated-series",
      "typeNumber": 5,
      "description": "У самого обычного молодого программиста живет совершенно необычный кот по имени Басик. Он наделен сверхъестественным интеллектом. Впрочем, это никого не удивляет. В современном мире не принято удивляться. И очень зря! Ведь Басик действительно удивительный кот. Он умный, сдержанный, заботливый и к тому же настоящий джентльмен. Его забавные приключения и хитроумные проделки удивят и позабавят не только хозяина, но и зрителей!",
      "shortDescription": "Удивительно умный кот охотно участвует в затеях своего хозяина. Мультсериал от авторов «Сказочного патруля»",
      "rating": {
        "kp": 9.002,
        "imdb": 0,
        "filmCritics": 0,
        "russianFilmCritics": 0,
        "await": null
      },
      "votes": {
        "kp": 30966,
        "imdb": 0,
        "filmCritics": 0,
        "russianFilmCritics": 0,
        "await": 144
      },
      "movieLength": null,
      "ratingMpaa": null,
      "poster": {
        "url": "https://avatars.mds.yandex.net/get-kinopoisk-image/4774061/19084913-a758-4ec5-a973-7ca8d59c5202/orig",
        "previewUrl": "https://avatars.mds.yandex.net/get-kinopoisk-image/4774061/19084913-a758-4ec5-a973-7ca8d59c5202/x1000"
      },
      "backdrop": {
        "url": "https://avatars.mds.yandex.net/get-ott/1531675/2a0000018511618dfcf082f6ebe064866d06/orig",
        "previewUrl": "https://avatars.mds.yandex.net/get-ott/1531675/2a0000018511618dfcf082f6ebe064866d06/x1000"
      },
      "genres": [
        {
          "name": "мультфильм"
        },
        {
          "name": "детский"
        }
      ],
      "countries": [
        {
          "name": "Россия"
        }
      ],
      "releaseYears": [
        {
          "start": 2022,
          "end": null
        }
      ],
      "top10": null,
      "top250": null,
      "ageRating": 0,
      "year": 2022,
      "status": null,
      "ticketsOnSale": false,
      "isSeries": true,
      "seriesLength": null,
      "totalSeriesLength": null
    },
    {
      "id": 952236,
      "name": "Hot Wheels. Мегатрасса",
      "alternativeName": "Team Hot Wheels: Build the Epic Race",
      "enName": null,
      "names": [
        {
          "name": "Hot Wheels. Мегатрасса",
          "language": "RU",
          "type": "Russian title on kinopoisk"
        },
        {
          "name": "Team Hot Wheels: Build the Epic Race",
          "language": null,
          "type": "Original title on kinopoisk"
        }
      ],
      "type": "cartoon",
      "typeNumber": 3,
      "year": 2015,
      "description": "Герои команды Хот Вилс построили для жителей города невероятную Мегатрассу для ежегодных городских Мегагонок. Но не обошлось без форс-мажора - на город напали дорожные пираты! Друзьям придется приложить огромные усилия, чтобы освободить Уайта и спасти жителей города от катастрофы.",
      "shortDescription": "Друзья-гонщики сталкиваются с бесшабашной дорожной бандой. Остросюжетный мультфильм о пользе командной работы",
      "status": null,
      "rating": {
        "kp": 9.262,
        "imdb": 6.1,
        "filmCritics": 0,
        "russianFilmCritics": 0,
        "await": null
      },
      "votes": {
        "kp": 22036,
        "imdb": 51,
        "filmCritics": 0,
        "russianFilmCritics": 0,
        "await": 0
      },
      "movieLength": 45,
      "totalSeriesLength": null,
      "seriesLength": null,
      "ratingMpaa": null,
      "ageRating": 6,
      "poster": {
        "url": "https://avatars.mds.yandex.net/get-kinopoisk-image/4303601/6f264ae2-ce76-4179-b63d-68d324789758/orig",
        "previewUrl": "https://avatars.mds.yandex.net/get-kinopoisk-image/4303601/6f264ae2-ce76-4179-b63d-68d324789758/x1000"
      },
      "backdrop": {
        "url": "https://avatars.mds.yandex.net/get-ott/212840/2a0000017d75c69d2af36bfc15816c8e469f/orig",
        "previewUrl": "https://avatars.mds.yandex.net/get-ott/212840/2a0000017d75c69d2af36bfc15816c8e469f/x1000"
      },
      "genres": [
        {
          "name": "мультфильм"
        },
        {
          "name": "детский"
        }
      ],
      "countries": [
        {
          "name": "США"
        }
      ],
      "ticketsOnSale": false,
      "top10": null,
      "top250": null,
      "isSeries": false,
      "releaseYears": []
    }
  ],
  "total": 48,
  "limit": 10,
  "page": 1,
  "pages": 5
}
